…
pups_data = read_csv("./data/FAS_pups.csv",
  col_types = "ciiiii")
pups_data = janitor::clean_names(pups_data)
```
##Select Variables

```r
select(litters_data, group,  litter_number, gd0_weight)
```

```
## # A tibble: 49 x 3
##   group litter_number gd0_weight
##   <chr> <chr>              <dbl>
## 1 Con7  #85                 19.7
## 2 Con7  #1/2/95/2           27  
## 3 Con7  #5/5/3/83/3-3       26  
## # ... with 46 more rows
```

```r
select(litters_data, group,  gd0_weight, litter_number)
```

```
## # A tibble: 49 x 3
##   group gd0_weight litter_number
##   <chr>      <dbl> <chr>        
## 1 Con7        19.7 #85          
## 2 Con7        27   #1/2/95/2    
## 3 Con7        26   #5/5/3/83/3-3
## # ... with 46 more rows
```

```r
select(litters_data, group, gd_of_birth:pups_survive)
```

```
## # A tibble: 49 x 5
##   group gd_of_birth pups_born_alive pups_dead_birth pups_survive
##   <chr>       <int>           <int>           <int>        <int>
## 1 Con7           20               3               4            3
## 2 Con7           19               8               0            7
## 3 Con7           19               6               0            5
## # ... with 46 more rows
```

```r
select(litters_data, -litter_number)
```

```
## # A tibble: 49 x 7
##   group gd0_weight gd18_weight gd_of_birth pups_born_alive pups_dead_birth
##   <chr>      <dbl>       <dbl>       <int>           <int>           <int>
## 1 Con7        19.7        34.7          20               3               4
## 2 Con7        27          42            19               8               0
## 3 Con7        26          41.4          19               6               0
## # ... with 46 more rows, and 1 more variable: pups_survive <int>
```

```r
select(litters_data, group,  litter_number, gest_day_0_weight = gd0_weight)
```

```
## # A tibble: 49 x 3
##   group litter_number gest_day_0_weight
##   <chr> <chr>                     <dbl>
## 1 Con7  #85                        19.7
## 2 Con7  #1/2/95/2                  27  
## 3 Con7  #5/5/3/83/3-3              26  
## # ... with 46 more rows
```

```r
rename(litters_data, gest_day_0_weight = gd0_weight)
```

```
## # A tibble: 49 x 8
##   group litter_number gest_day_0_weig~ gd18_weight gd_of_birth
##   <chr> <chr>                    <dbl>       <dbl>       <int>
## 1 Con7  #85                       19.7        34.7          20
## 2 Con7  #1/2/95/2                 27          42            19
## 3 Con7  #5/5/3/83/3-3             26          41.4          19
## # ... with 46 more rows, and 3 more variables: pups_born_alive <int>,
## #   pups_dead_birth <int>, pups_survive <int>
```
... use select helpers:


```r
select(litters_data,starts_with("gd"))
```

```
## # A tibble: 49 x 3
##   gd0_weight gd18_weight gd_of_birth
##        <dbl>       <dbl>       <int>
## 1       19.7        34.7          20
## 2       27          42            19
## 3       26          41.4          19
## # ... with 46 more rows
```

```r
select(litters_data,litter_number,starts_with("gd"))
```

```
## # A tibble: 49 x 4
##   litter_number gd0_weight gd18_weight gd_of_birth
##   <chr>              <dbl>       <dbl>       <int>
## 1 #85                 19.7        34.7          20
## 2 #1/2/95/2           27          42            19
## 3 #5/5/3/83/3-3       26          41.4          19
## # ... with 46 more rows
```

```r
select(litters_data, litter_number, everything()) #everything that gives everything that you haven't already selected. You can put the more important variables  on the left.
```

```
## # A tibble: 49 x 8
##   litter_number group gd0_weight gd18_weight gd_of_birth pups_born_alive
##   <chr>         <chr>      <dbl>       <dbl>       <int>           <int>
## 1 #85           Con7        19.7        34.7          20               3
## 2 #1/2/95/2     Con7        27          42            19               8
## 3 #5/5/3/83/3-3 Con7        26          41.4          19               6
## # ... with 46 more rows, and 2 more variables: pups_dead_birth <int>,
## #   pups_survive <int>
```


```r
select(pups_data,litter_number, sex,pd_ears)
```

```
## # A tibble: 313 x 3
##   litter_number   sex pd_ears
##   <chr>         <int>   <int>
## 1 #85               1       4
## 2 #85               1       4
## 3 #1/2/95/2         1       5
## # ... with 310 more rows
```
…
```r
filter(litters_data, !is.na(gd0_weight))
```

```
## # A tibble: 34 x 8
##   group litter_number gd0_weight gd18_weight gd_of_birth pups_born_alive
##   <chr> <chr>              <dbl>       <dbl>       <int>           <int>
## 1 Con7  #85                 19.7        34.7          20               3
## 2 Con7  #1/2/95/2           27          42            19               8
## 3 Con7  #5/5/3/83/3-3       26          41.4          19               6
## # ... with 31 more rows, and 2 more variables: pups_dead_birth <int>,
## #   pups_survive <int>
```
…
